<svg xmlns="http://www.w3.org/2000/svg" viewBox="0 0 30 9">
    <defs>
        <pattern id="padPattern" patternUnits="userSpaceOnUse" width="1" height="1">
            <rect x="0" y="0" width="1" height="1" fill="#45220b" />
            <circle cx=".5" cy=".5" r="0.35" fill="#76592f" />
            <circle cx=".5" cy=".5" r="0.15" fill="#000000" />
        </pattern>

        <style>
            svg { overflow: visible; }
            .dip8 { transform-origin: 1 1; }
        </style>

        <linearGradient id="gradientResistor" x1="0" y1="0" x2="0" y2="1">
            <stop offset="-10%" stop-color="#022f66" />
            <stop offset="50%" stop-color="#0088ff" />
            <stop offset="110%" stop-color="#022f66" />
        </linearGradient>

        <linearGradient id="gradientCapacitor" x1="0" y1="0" x2="0" y2="1">
            <stop offset="-10%" stop-color="#765220" />
            <stop offset="50%" stop-color="#e3ae3b" />
            <stop offset="110%" stop-color="#765220" />
        </linearGradient>

            <linearGradient id="gradientWire" x1="0" y1="0" x2="0" y2="1">
            <stop offset="-10%" stop-color="#37064d" />
            <stop offset="50%" stop-color="#6f1195" />
            <stop offset="110%" stop-color="#330657" />
        </linearGradient>

        <marker id="resistorMarker" markerWidth="5" markerHeight="2" refX="2.5" refY="1" orient="auto" overflow="visible">
            <rect x="0" y="0" width="5" height="2" fill="url(#gradientResistor)" rx="0.5" ry="1" stroke="#000000" stroke-width="0.2"/>
        </marker>

        <marker id="wireMarker" markerWidth="1" markerHeight="1" refX="0" refY="0.5" orient="auto" overflow="visible" markerUnits="userSpaceOnUse">
            <rect x="0" y="0" width="10%" height="1" fill="url(#gradientWire)" rx="0.5" ry="1" stroke="#000000" stroke-width="0.2"/>
        </marker>

        <marker id="capacitorMarker" markerWidth="3.5" markerHeight="1.5" refX="1.75" refY="0.75" orient="auto" overflow="visible">
            <rect x="0" y="0" width="3.5" height="1.5" fill="url(#gradientCapacitor)" rx="3" ry="2" stroke="#000000" stroke-width="0.2"/>
        </marker>

        <g id="dip8" class="dip8">
            <g fill="grey">            
                <circle cx="0" cy="0" r="0.25" />
                <circle cx="0" cy="1" r="0.25" />
                <circle cx="0" cy="2" r="0.25" />
                <circle cx="0" cy="3" r="0.25" />

                <circle cx="3" cy="0" r="0.25" />
                <circle cx="3" cy="1" r="0.25" />
                <circle cx="3" cy="2" r="0.25" />
                <circle cx="3" cy="3" r="0.25" />
            </g>

            <rect x="0." y="-0.5" width="3" height="4" fill="#242424" stroke="#000000" stroke-width="0.1" />
            <circle cx="0.5" cy="0" r="0.3" fill="#161616" />
        </g>

        <g id="wire">
            <circle cx="0%" cy="0%" r="0.175" fill="grey" stroke="none" />
            <circle cx="100%" cy="100%" r="0.175" fill="grey" stroke="none" />
            <line x1="0%" x2="100%" y1="0%" y2="100%" stroke="grey" stroke-width="0.3"/>
        </g>

        <g id="dWire">    
            <use href="#wire" />
            <line x1="8%" x2="92%" y1="8%" y2="92%" stroke="#000000" stroke-width="0.7"/>
            <line x1="10%" x2="90%" y1="10%" y2="90%" stroke-width="0.5"/>
        </g>

        <g id="adWire">    
            <use href="#dWire" transform="scale(1,-1)" />
        </g>

        <g id="resistor">    
            <use href="#wire" />
            <line x1="0%" x2="50%" y1="0%" y2="50%" stroke="none" stroke-width="0.5" marker-end="url(#resistorMarker)"/>
        </g>

        <g id="adResistor">
            <use href="#resistor" transform="scale(1,-1)" />
        </g>

        <g id="capacitor">
            <use href="#wire" />
            <line x1="0%" x2="50%" y1="0%" y2="50%" stroke="none" stroke-width="0.5" marker-end="url(#capacitorMarker)"/>
        </g>

        <g id="adCapacitor">
            <use href="#capacitor" transform="scale(1,-1)" />
        </g>

    </defs>

    <rect width="30" height="9" fill="#45220b" />

    <g transform="translate(1,1)">

    <rect width="28" height="7" fill="url(#padPattern)" />

    <g transform="translate(-0.5,-0.5)">
    <g transform="translate(2, -1)">
    
        <svg x="9" y="3" width="5" height="0"> <use href="#resistor"/> </svg>

        <svg x="2" y="4" width="5" height="2"> <use href="#adWire" stroke="#b19319"/> </svg>
        <svg x="8" y="2" width="7" height="0"> <use href="#dWire" stroke="#0e693a"/> </svg>
        <svg x="2" y="5" width="6" height="0"> <use href="#dWire" stroke="#bfc8c3"/> </svg>
        <svg x="7" y="6" width="2" height="0"> <use href="#dWire" stroke="#2b2d98"/> </svg>
        <svg x="2" y="6" width="4" height="0"> <use href="#resistor"/> </svg>

        <use x="10" y="4" href="#dip8"/>

        <svg x="9" y="4" width="5" height="2"> <use href="#dWire" stroke="#b13519"/> </svg>
        <svg x="9" y="5" width="5" height="2"> <use href="#dWire" stroke="#b13519"/> </svg>
        <svg x="14" y="4" width="2" height="0"> <use href="#dWire" stroke="#2b2d98"/> </svg>
        <svg x="14" y="5" width="2" height="0"> <use href="#dWire" stroke="#2b2d98"/> </svg>
        <svg x="15" y="6" width="1" height="0"> <use href="#dWire" stroke="#666666"/> </svg>
        <svg x="15" y="7" width="1" height="0"> <use href="#dWire" stroke="#666666"/> </svg>
        <svg x="9" y="8" width="7" height="0"> <use href="#dWire" stroke="#aea9a9"/> </svg>
        <svg x="2" y="8" width="7" height="1"> <use href="#adWire" stroke="#2b2d98"/> </svg>
        <svg x="2" y="7" width="4" height="0"> <use href="#capacitor"/> </svg>

        <svg x="17" y="5" width="6" height="1"> <use href="#dWire2" stroke="#2b2d98"/> </svg>
    </g>
    </g>
    </g>

</svg>